\relax 
\citation{goodman}
\@writefile{toc}{\contentsline {section}{\numberline {1}Maxwell's equations}{1}}
\@writefile{toc}{\contentsline {section}{\numberline {2}Wave equations}{1}}
\@writefile{toc}{\contentsline {section}{\numberline {3}Helmholtz equation}{1}}
\@writefile{lof}{\contentsline {figure}{\numberline {1}{\ignorespaces Illustration of Helmholtz-Kirchhoff integral theorem.\relax }}{2}}
\@writefile{toc}{\contentsline {section}{\numberline {4}Green's theorem}{2}}
\@writefile{toc}{\contentsline {section}{\numberline {5}Free-space Green function}{2}}
\@writefile{toc}{\contentsline {section}{\numberline {6}Helmholtz-Kirchhoff integral theorem}{2}}
\@writefile{toc}{\contentsline {section}{\numberline {7}Fresnel-Kirchhoff diffraction formula}{2}}
\@writefile{lof}{\contentsline {figure}{\numberline {2}{\ignorespaces Illustration of Fresnel-Kirchhoff diffraction.\relax }}{3}}
\@writefile{toc}{\contentsline {section}{\numberline {8}Rayleigh-Sommerfeld diffraction}{3}}
\@writefile{lof}{\contentsline {figure}{\numberline {3}{\ignorespaces Illustration of Rayleigh-Sommerfeld diffraction.\relax }}{4}}
\@writefile{toc}{\contentsline {section}{\numberline {9}Huygens-Fresnel principle}{4}}
\@writefile{toc}{\contentsline {section}{\numberline {10}Angular spectrum}{5}}
\@writefile{toc}{\contentsline {section}{\numberline {11}Propagation of angular spectrum}{5}}
\@writefile{lof}{\contentsline {figure}{\numberline {4}{\ignorespaces Setting for Fresnel and Fraunhofer diffractions.\relax }}{6}}
\@writefile{toc}{\contentsline {section}{\numberline {12}Effect of diffracting aperture on angular spectrum}{6}}
\@writefile{toc}{\contentsline {section}{\numberline {13}Fresnel diffraction}{7}}
\@writefile{lof}{\contentsline {figure}{\numberline {5}{\ignorespaces Fraunhofer diffraction of a rectangle.\relax }}{8}}
\@writefile{lof}{\contentsline {figure}{\numberline {6}{\ignorespaces Fraunhofer diffraction of a single slit.\relax }}{8}}
\@writefile{toc}{\contentsline {section}{\numberline {14}Fraunhofer diffraction}{8}}
\@writefile{lof}{\contentsline {figure}{\numberline {7}{\ignorespaces Fraunhofer diffraction of double slits.\relax }}{9}}
\@writefile{lof}{\contentsline {figure}{\numberline {8}{\ignorespaces Fraunhofer diffraction of a circle.\relax }}{9}}
\@writefile{lof}{\contentsline {figure}{\numberline {9}{\ignorespaces Thin lens: front view (left) and side view (right).\relax }}{9}}
\@writefile{lof}{\contentsline {figure}{\numberline {10}{\ignorespaces Thin lens thickness.\relax }}{10}}
\@writefile{lof}{\contentsline {figure}{\numberline {11}{\ignorespaces Transmittance function of a thin lens.\relax }}{10}}
\@writefile{toc}{\contentsline {section}{\numberline {15}Thin lens}{11}}
\@writefile{toc}{\contentsline {section}{\numberline {16}Fourier transform properties of lenses}{11}}
\@writefile{toc}{\contentsline {subsection}{\numberline {16.1}Input placed against the lens}{11}}
\@writefile{lof}{\contentsline {figure}{\numberline {12}{\ignorespaces Fourier transform properties of a thin lens.\relax }}{12}}
\@writefile{toc}{\contentsline {subsection}{\numberline {16.2}Input placed in front of the lens}{12}}
\@writefile{toc}{\contentsline {subsection}{\numberline {16.3}Input placed behind the lens}{13}}
\@writefile{toc}{\contentsline {section}{\numberline {17}Image formation}{13}}
\@writefile{lof}{\contentsline {figure}{\numberline {13}{\ignorespaces Image formation.\relax }}{14}}
\@writefile{lof}{\contentsline {figure}{\numberline {14}{\ignorespaces Object pattern illuminated by a normal incident monochromatic plane wave.\relax }}{16}}
\@writefile{lof}{\contentsline {figure}{\numberline {15}{\ignorespaces Images with DUV, $\lambda =193$ nm, and $NA=0.9$ (left) and $NA=1.35$ (right).\relax }}{16}}
\@writefile{lof}{\contentsline {figure}{\numberline {16}{\ignorespaces Images with UV, $\lambda =100$ nm, and $NA=0.9$ (left) and $NA=1.35$ (right).\relax }}{17}}
\@writefile{lof}{\contentsline {figure}{\numberline {17}{\ignorespaces Images with EUV, $\lambda =13.5$ nm, and $NA=0.9$ (left) and $NA=1.35$ (right).\relax }}{17}}
\@writefile{toc}{\contentsline {section}{\numberline {18}Operator notation}{18}}
\@writefile{lot}{\contentsline {table}{\numberline {1}{\ignorespaces Relations between operators\relax }}{18}}
\@writefile{toc}{\contentsline {section}{\numberline {19}Frequency analysis of imaging systems}{18}}
\@writefile{toc}{\contentsline {subsection}{\numberline {19.1}A generalized model}{18}}
\@writefile{lof}{\contentsline {figure}{\numberline {18}{\ignorespaces A generalized model.\relax }}{19}}
\@writefile{toc}{\contentsline {subsection}{\numberline {19.2}Polychromatic illumination}{20}}
\@writefile{toc}{\contentsline {subsubsection}{\numberline {19.2.1}Coherent case}{20}}
\@writefile{toc}{\contentsline {subsubsection}{\numberline {19.2.2}Incoherent case}{21}}
\bibstyle{unsrt}
\bibdata{ref}
\bibcite{goodman}{1}
\@writefile{toc}{\contentsline {subsubsection}{\numberline {19.2.3}Effects of aberrations}{22}}
\@writefile{lof}{\contentsline {figure}{\numberline {19}{\ignorespaces Effect of aberration.\relax }}{23}}
\@writefile{lot}{\contentsline {table}{\numberline {2}{\ignorespaces Comparison of coherent and incoherent responses. $\star $ is the autocorrelation.\relax }}{23}}
